<?xml version="1.0" encoding="UTF-8" standalone="no"?>
<!-- Created with Inkscape (http://www.inkscape.org/) -->

<svg
   xmlns:dc="http://purl.org/dc/elements/1.1/"
   xmlns:cc="http://creativecommons.org/ns#"
   xmlns:rdf="http://www.w3.org/1999/02/22-rdf-syntax-ns#"
   xmlns:svg="http://www.w3.org/2000/svg"
   xmlns="http://www.w3.org/2000/svg"
   xmlns:sodipodi="http://sodipodi.sourceforge.net/DTD/sodipodi-0.dtd"
   xmlns:inkscape="http://www.inkscape.org/namespaces/inkscape"
   width="293"
   height="70"
   viewBox="0 0 77.522916 18.520834"
   version="1.1"
   id="svg2296"
   inkscape:version="0.92.3 (unknown)"
   sodipodi:docname="single-logo.svg">
  <defs
     id="defs2290" />
  <sodipodi:namedview
     id="base"
     pagecolor="#ffffff"
     bordercolor="#666666"
     borderopacity="1.0"
     inkscape:pageopacity="0.0"
     inkscape:pageshadow="2"
     inkscape:zoom="3.6203867"
     inkscape:cx="144.58081"
     inkscape:cy="17.14491"
     inkscape:document-units="px"
     inkscape:current-layer="g4220"
     showgrid="false"
     units="px"
     inkscape:window-width="1853"
     inkscape:window-height="1016"
     inkscape:window-x="67"
     inkscape:window-y="27"
     inkscape:window-maximized="1" />
  <metadata
     id="metadata2293">
    <rdf:RDF>
      <cc:Work
         rdf:about="">
        <dc:format>image/svg+xml</dc:format>
        <dc:type
           rdf:resource="http://purl.org/dc/dcmitype/StillImage" />
        <dc:title></dc:title>
      </cc:Work>
    </rdf:RDF>
  </metadata>
  <g
     inkscape:label="Layer 1"
     inkscape:groupmode="layer"
     id="layer1"
     transform="translate(0,-278.47916)">
    <g
       id="g4204"
       transform="translate(-1.6077933,-3.0694235)">
      <g
         id="g4220"
         transform="matrix(1.5072807,0,0,1.5072807,-0.65125022,-142.75359)"
         style="stroke-width:0.66344643">
        <g
           id="g956"
           transform="translate(-0.16727759,-1.277992e-6)">
          <text
             id="text4913"
             y="290.79965"
             x="12.59274"
             style="font-style:normal;font-weight:normal;font-size:3.06402874px;line-height:1.25;font-family:sans-serif;letter-spacing:0px;word-spacing:0px;fill:#1e1f21;fill-opacity:1;stroke:none;stroke-width:0.1755369"
             xml:space="preserve"><tspan
               style="font-style:normal;font-variant:normal;font-weight:600;font-stretch:normal;font-size:11.03194523px;font-family:'Source Sans Pro';-inkscape-font-specification:'Source Sans Pro Semi-Bold';fill:#1e1f21;fill-opacity:1;stroke-width:0.1755369"
               y="290.79965"
               x="12.59274"
               id="tspan4911"
               sodipodi:role="line">FAISHOL</tspan></text>
          <g
             style="stroke-width:9.6601181"
             transform="matrix(0.06867892,0,0,0.06867892,-0.24714724,276.86749)"
             id="g4743">
            <path
               inkscape:connector-curvature="0"
               id="path4721"
               d="M 170.81222,67.47738 163.3042,80.481651 H 36.538209 L 29.030191,67.47738 Z"
               style="fill:#bf0000;fill-opacity:1;stroke:none;stroke-width:2.55590582px;stroke-linecap:butt;stroke-linejoin:miter;stroke-opacity:1" />
            <path
               inkscape:connector-curvature="0"
               id="path4723"
               d="m 45.232544,67.47738 29.820944,51.65139 H 58.851135 L 29.030191,67.47738 Z"
               style="fill:#bf0000;fill-opacity:1;stroke:none;stroke-width:2.55590582px;stroke-linecap:butt;stroke-linejoin:miter;stroke-opacity:1" />
            <path
               inkscape:connector-curvature="0"
               id="path4725"
               d="M 51.343115,106.1245 H 180.90399 l -7.50802,13.00427 H 58.851135 Z"
               style="fill:#bf0000;fill-opacity:1;stroke:none;stroke-width:2.55590582px;stroke-linecap:butt;stroke-linejoin:miter;stroke-opacity:1" />
            <path
               sodipodi:nodetypes="ccccc"
               inkscape:connector-curvature="0"
               id="path4727"
               d="m 154.60987,67.47738 h 16.20235 l -32.28695,55.92265 h -16.20235 z"
               style="fill:#bf0000;fill-opacity:1;stroke:none;stroke-width:2.55590582px;stroke-linecap:butt;stroke-linejoin:miter;stroke-opacity:1" />
            <path
               inkscape:connector-curvature="0"
               id="path4729"
               d="m 164.70165,106.1245 h 16.20234 l -34.79566,60.26785 h -16.20234 z"
               style="fill:#bf0000;fill-opacity:1;stroke:none;stroke-width:2.55590582px;stroke-linecap:butt;stroke-linejoin:miter;stroke-opacity:1" />
            <path
               inkscape:connector-curvature="0"
               id="path4731"
               d="m 153.61635,153.38808 -7.50802,13.00427 H 86.138775 l -7.50802,-13.00427 z"
               style="fill:#bf0000;fill-opacity:1;stroke:none;stroke-width:2.55590582px;stroke-linecap:butt;stroke-linejoin:miter;stroke-opacity:1" />
            <path
               inkscape:connector-curvature="0"
               id="path4733"
               d="m 63.783188,127.67134 22.355585,38.72101 H 102.34113 L 79.985544,127.67134 H 63.783188"
               style="fill:#bf0000;fill-opacity:1;stroke:none;stroke-width:2.55590582px;stroke-linecap:butt;stroke-linejoin:miter;stroke-opacity:1" />
            <path
               inkscape:connector-curvature="0"
               id="path4735"
               d="m 71.291208,140.67561 h 57.260002 l 7.50801,-13.00427 H 63.783188 Z"
               style="fill:#bf0000;fill-opacity:1;stroke:none;stroke-width:2.55590582px;stroke-linecap:butt;stroke-linejoin:miter;stroke-opacity:1" />
            <path
               inkscape:connector-curvature="0"
               id="path4737"
               d="M 83.718851,218.32752 136.05922,127.67134 H 119.85688 L 75.617678,204.29588 Z"
               style="fill:#bf0000;fill-opacity:1;stroke:none;stroke-width:2.55590582px;stroke-linecap:butt;stroke-linejoin:miter;stroke-opacity:1" />
            <path
               sodipodi:nodetypes="ccccc"
               inkscape:connector-curvature="0"
               id="path4739"
               d="M 99.921199,246.39081 143.6423,170.66365 h -16.20234 l -35.619932,61.69552 z"
               style="fill:#bf0000;fill-opacity:1;stroke:none;stroke-width:2.55590582px;stroke-linecap:butt;stroke-linejoin:miter;stroke-opacity:1" />
            <path
               inkscape:connector-curvature="0"
               id="path4741"
               d="m 99.921199,246.39081 -24.303521,-42.09493 8.101176,-14.03165 24.303526,42.09493 z"
               style="fill:#bf0000;fill-opacity:1;stroke:none;stroke-width:2.55590582px;stroke-linecap:butt;stroke-linejoin:miter;stroke-opacity:1" />
          </g>
        </g>
      </g>
    </g>
  </g>
</svg>
